{
  "users": [
    {
      "email": "medic@gmmail.com",
      "password": "$2a$10$UUXLHim1h6TJyhuqAPGjEuQhZUCbXUmAMQXv8ggyvpcaLjuX/5c5S",
      "rem": "000.000.000-0",
      "type": "medic",
      "id": 2,
      "age": 20
    },
    {
      "email": "patient@gmmail.com",
      "password": "$2a$10$ncYEinigXlpuw0Yo5fniFuROS.D9zWXIf95xkFdqFjegXyxeYZN4S",
      "cpf": "000.000.000-0",
      "type": "patient",
      "exams": [
        {
          "type": "pre-natal",
          "data": "20/20"
        }
      ],
      "vaccines": [
        {
          "type": "dengue",
          "data": "20/20"
        }
      ],
      "consultations": [
        {
          "type": "teste de costa",
          "data": "20/20"
        }
      ],
      "age": 40,
      "id": 3
    }
  ]
}
